{
  "required": true,
  "minVersion": "0.8",
  "package": "adamantpenguin.serverscanner.mixin",
  "compatibilityLevel": "JAVA_17",
  "mixins": [
  ],
  "client": [
    "MultiplayerScreenMixin"
  ],
  "injectors": {
    "defaultRequire": 1
  }
}
